INFO634 Group Project
…
# Group data by year and season and calculate total movements
workdf_season_year <- workdf_monthly %>%
  group_by(year = year(year_month), season) %>%
  summarise(
    total_movements = sum(total_movements, na.rm = TRUE)
  ) %>%
  ungroup()

`summarise()` has grouped output by 'year'. You can override using the
`.groups` argument.

print(workdf_season_year)

# A tibble: 24 × 3
    year season total_movements
   <dbl> <chr>            <int>
 1  2019 Autumn         3400878
 2  2019 Spring         3444672
 3  2019 Summer         4084038
 4  2019 Winter         3271182
 5  2020 Autumn          753861
 6  2020 Spring           78981
 7  2020 Summer         2597337
 8  2020 Winter           77670
 9  2021 Autumn          302208
10  2021 Spring           65586
# ℹ 14 more rows
…
